0.0,2728.0,0.0,0.00055,0.0024,0.0,0.0,0.0,0.0,106337467445.0,2471540509483.0,1073741824.0,504658657.0,0.0,0.0,0.0,0.0,22847488.0,408051712.0,562266112.0
0.0,2728.0,0.0,0.00055,0.0024,0.0,0.0,0.0,0.0,106337467445.0,2471540509483.0,1073741824.0,504658657.0,0.0,0.0,0.0,0.0,22847488.0,408051712.0,562266112.0
0.0,2728.0,0.0,0.00055,0.0024,0.0,0.0,0.0,0.0,106337467445.0,2471540509483.0,1073741824.0,504658657.0,0.0,0.0,0.0,0.0,22847488.0,408051712.0,562266112.0
0.0,2728.0,0.0,0.00055,0.0024,0.0,0.0,0.0,0.0,106337467445.0,2471540509483.0,1073741824.0,504658657.0,0.0,0.0,0.0,0.0,22847488.0,408051712.0,562266112.0
0.0,2728.0,0.0,0.00055,0.0024,0.0,0.0,0.0,0.0,106337467445.0,2471540509483.0,1073741824.0,504658657.0,0.0,0.0,0.0,0.0,22847488.0,408051712.0,562266112.0
0.0,2728.0,0.0,0.00055,0.0024,0.0,0.0,0.0,0.0,106337467445.0,2471540509483.0,1073741824.0,504658657.0,0.0,0.0,0.0,0.0,22847488.0,408051712.0,562266112.0
0.0,2728.0,0.0,0.00055,0.0024,0.0,0.0,0.0,0.0,106337467445.0,2471540509483.0,1073741824.0,504658657.0,0.0,0.0,0.0,0.0,22847488.0,408051712.0,562266112.0
0.0,2728.0,0.0,0.00055,0.0024,0.0,0.0,0.0,0.0,106337468915.0,2471540509483.0,1073741824.0,504658657.0,1.0,0.0,1.0,0.0,22863872.0,408051712.0,562298880.0
4642.0,0.0,0.015,0.0,0.0,0.0,0.0,0.0,0.0,106337468915.0,2471540509483.0,1073741824.0,504658657.0,1.0,0.0,1.0,0.0,22863872.0,408051712.0,562298880.0
4642.0,0.0,0.015,0.0,0.0,0.0,0.0,0.0,0.0,106337468915.0,2471540509483.0,1073741824.0,504658657.0,1.0,0.0,1.0,0.0,22863872.0,408051712.0,562298880.0
4642.0,0.0,0.015,0.0,0.0,0.0,0.0,0.0,0.0,106337468915.0,2471540509483.0,1073741824.0,504658657.0,1.0,0.0,1.0,0.0,22863872.0,408051712.0,562298880.0
4642.0,0.0,0.015,0.0,0.0,0.0,0.0,0.0,0.0,106337468915.0,2471540509483.0,1073741824.0,504658657.0,1.0,0.0,1.0,0.0,22863872.0,408051712.0,562298880.0
4642.0,0.0,0.015,0.0,0.0,0.0,0.0,0.0,0.0,106337468915.0,2471540509483.0,1073741824.0,504658657.0,1.0,0.0,1.0,0.0,22863872.0,408051712.0,562298880.0
4642.0,0.0,0.015,0.0,0.0,0.0,0.0,0.0,0.0,106337468915.0,2471540509483.0,1073741824.0,504658657.0,1.0,0.0,1.0,0.0,22863872.0,408051712.0,562298880.0
4642.0,0.0,0.015,0.0,0.0,0.0,0.0,0.0,0.0,106337468915.0,2471540509483.0,1073741824.0,504658657.0,1.0,0.0,1.0,0.0,22863872.0,408051712.0,562298880.0
0.0,6280.0,0.0,0.00048,0.061,0.0,0.0,0.0,0.0,106337470163.0,2471540509483.0,1073741824.0,526133493.0,1.0,0.0,1.0,0.0,22872064.0,412045312.0,541396992.0
0.0,6280.0,0.0,0.00048,0.061,0.0,0.0,0.0,0.0,106337470163.0,2471540509483.0,1073741824.0,526133493.0,1.0,0.0,1.0,0.0,22872064.0,412045312.0,541396992.0
0.0,6280.0,0.0,0.00048,0.061,0.0,0.0,0.0,0.0,106337470163.0,2471540509483.0,1073741824.0,526133493.0,1.0,0.0,1.0,0.0,22872064.0,412045312.0,541396992.0
0.0,6280.0,0.0,0.00048,0.061,0.0,0.0,0.0,0.0,106337470163.0,2471540509483.0,1073741824.0,526133493.0,1.0,0.0,1.0,0.0,22872064.0,412045312.0,541396992.0
0.0,6280.0,0.0,0.00048,0.061,0.0,0.0,0.0,0.0,106337470163.0,2471540509483.0,1073741824.0,526133493.0,1.0,0.0,1.0,0.0,22872064.0,412045312.0,541396992.0
0.0,6280.0,0.0,0.00048,0.061,0.0,0.0,0.0,0.0,106337470163.0,2471540509483.0,1073741824.0,526133493.0,1.0,0.0,1.0,0.0,22872064.0,412045312.0,541396992.0
0.0,6280.0,0.0,0.00048,0.061,0.0,0.0,0.0,0.0,106337470163.0,2471540509483.0,1073741824.0,526133493.0,1.0,0.0,1.0,0.0,22872064.0,412045312.0,541396992.0
0.0,1638.0,0.0,0.00026,0.038,1300000.0,33000000.0,0.0,0.0,106355678769.0,2472074680067.0,1073741824.0,612032839.0,59.0,17.0,76.0,0.0,22896640.0,356651008.0,456531968.0
0.0,1638.0,0.0,0.00026,0.038,1300000.0,33000000.0,0.0,0.0,106355678769.0,2472074680067.0,1073741824.0,612032839.0,59.0,17.0,76.0,0.0,22896640.0,356651008.0,456531968.0
0.0,1638.0,0.0,0.00026,0.038,1300000.0,33000000.0,0.0,0.0,106355678769.0,2472074680067.0,1073741824.0,612032839.0,59.0,17.0,76.0,0.0,22896640.0,356651008.0,456531968.0
0.0,1638.0,0.0,0.00026,0.038,1300000.0,33000000.0,0.0,0.0,106355678769.0,2472074680067.0,1073741824.0,612032839.0,59.0,17.0,76.0,0.0,22896640.0,356651008.0,456531968.0
0.0,1638.0,0.0,0.00026,0.038,1300000.0,33000000.0,0.0,0.0,106355678769.0,2472074680067.0,1073741824.0,612032839.0,59.0,17.0,76.0,0.0,22896640.0,356651008.0,456531968.0
0.0,1638.0,0.0,0.00026,0.038,1300000.0,33000000.0,0.0,0.0,106355678769.0,2472074680067.0,1073741824.0,612032839.0,59.0,17.0,76.0,0.0,22896640.0,356651008.0,456531968.0
0.0,1638.0,0.0,0.00026,0.038,1300000.0,33000000.0,0.0,0.0,106355678769.0,2472074680067.0,1073741824.0,612032839.0,59.0,17.0,76.0,0.0,22896640.0,356651008.0,456531968.0
0.0,23725.0,0.0,0.017,0.053,1300000.0,45000000.0,0.0,0.0,106380332387.0,2472797943652.0,1073741824.0,612032839.0,85.0,15.0,100.0,0.0,22921216.0,365912064.0,454197248.0
0.0,23725.0,0.0,0.017,0.053,1300000.0,45000000.0,0.0,0.0,106380332387.0,2472797943652.0,1073741824.0,612032839.0,85.0,15.0,100.0,0.0,22921216.0,365912064.0,454197248.0
0.0,23725.0,0.0,0.017,0.053,1300000.0,45000000.0,0.0,0.0,106380332387.0,2472797943652.0,1073741824.0,612032839.0,85.0,15.0,100.0,0.0,22921216.0,365912064.0,454197248.0
0.0,23725.0,0.0,0.017,0.053,1300000.0,45000000.0,0.0,0.0,106380332387.0,2472797943652.0,1073741824.0,612032839.0,85.0,15.0,100.0,0.0,22921216.0,365912064.0,454197248.0
0.0,23725.0,0.0,0.017,0.053,1300000.0,45000000.0,0.0,0.0,106380332387.0,2472797943652.0,1073741824.0,612032839.0,85.0,15.0,100.0,0.0,22921216.0,365912064.0,454197248.0
0.0,23725.0,0.0,0.017,0.053,1300000.0,45000000.0,0.0,0.0,106380332387.0,2472797943652.0,1073741824.0,612032839.0,85.0,15.0,100.0,0.0,22921216.0,365912064.0,454197248.0
0.0,23725.0,0.0,0.017,0.053,1300000.0,45000000.0,0.0,0.0,106380332387.0,2472797943652.0,1073741824.0,612032839.0,85.0,15.0,100.0,0.0,22921216.0,365912064.0,454197248.0
0.0,1412819.0,0.0,0.28,0.14,1300000.0,44000000.0,0.0,0.0,106404471107.0,2473506991598.0,1073741824.0,612032839.0,83.0,15.0,98.0,0.0,22953984.0,360603648.0,452431872.0
0.0,1412819.0,0.0,0.28,0.14,1300000.0,44000000.0,0.0,0.0,106404471107.0,2473506991598.0,1073741824.0,612032839.0,83.0,15.0,98.0,0.0,22953984.0,360603648.0,452431872.0
0.0,1412819.0,0.0,0.28,0.14,1300000.0,44000000.0,0.0,0.0,106404471107.0,2473506991598.0,1073741824.0,612032839.0,83.0,15.0,98.0,0.0,22953984.0,360603648.0,452431872.0
0.0,1412819.0,0.0,0.28,0.14,1300000.0,44000000.0,0.0,0.0,106404471107.0,2473506991598.0,1073741824.0,612032839.0,83.0,15.0,98.0,0.0,22953984.0,360603648.0,452431872.0
0.0,1412819.0,0.0,0.28,0.14,1300000.0,44000000.0,0.0,0.0,106404471107.0,2473506991598.0,1073741824.0,612032839.0,83.0,15.0,98.0,0.0,22953984.0,360603648.0,452431872.0
0.0,1412819.0,0.0,0.28,0.14,1300000.0,44000000.0,0.0,0.0,106404471107.0,2473506991598.0,1073741824.0,612032839.0,83.0,15.0,98.0,0.0,22953984.0,360603648.0,452431872.0
0.0,1412819.0,0.0,0.28,0.14,1300000.0,44000000.0,0.0,0.0,106404471107.0,2473506991598.0,1073741824.0,612032839.0,83.0,15.0,98.0,0.0,22953984.0,360603648.0,452431872.0
271.0,1335616.0,0.048,0.3,0.053,2500000.0,86000000.0,0.0,0.0,106452442543.0,2474914787768.0,1073741824.0,622770257.0,80.0,14.0,94.0,0.0,22982656.0,355545088.0,450859008.0
271.0,1335616.0,0.048,0.3,0.053,2500000.0,86000000.0,0.0,0.0,106452442543.0,2474914787768.0,1073741824.0,622770257.0,80.0,14.0,94.0,0.0,22982656.0,355545088.0,450859008.0
271.0,1335616.0,0.048,0.3,0.053,2500000.0,86000000.0,0.0,0.0,106452442543.0,2474914787768.0,1073741824.0,622770257.0,80.0,14.0,94.0,0.0,22982656.0,355545088.0,450859008.0
271.0,1335616.0,0.048,0.3,0.053,2500000.0,86000000.0,0.0,0.0,106452442543.0,2474914787768.0,1073741824.0,622770257.0,80.0,14.0,94.0,0.0,22982656.0,355545088.0,450859008.0
271.0,1335616.0,0.048,0.3,0.053,2500000.0,86000000.0,0.0,0.0,106452442543.0,2474914787768.0,1073741824.0,622770257.0,80.0,14.0,94.0,0.0,22982656.0,355545088.0,450859008.0
271.0,1335616.0,0.048,0.3,0.053,2500000.0,86000000.0,0.0,0.0,106452442543.0,2474914787768.0,1073741824.0,622770257.0,80.0,14.0,94.0,0.0,22982656.0,355545088.0,450859008.0
271.0,1335616.0,0.048,0.3,0.053,2500000.0,86000000.0,0.0,0.0,106452442543.0,2474914787768.0,1073741824.0,622770257.0,78.0,14.0,92.0,0.0,23007232.0,349966336.0,449466368.0
0.0,17272.0,0.0,0.016,0.0091,1300000.0,43000000.0,0.0,0.0,106474819031.0,2475570264533.0,1073741824.0,622770257.0,78.0,14.0,92.0,0.0,23007232.0,349966336.0,449466368.0
0.0,17272.0,0.0,0.016,0.0091,1300000.0,43000000.0,0.0,0.0,106474819031.0,2475570264533.0,1073741824.0,622770257.0,78.0,14.0,92.0,0.0,23007232.0,349966336.0,449466368.0
0.0,17272.0,0.0,0.016,0.0091,1300000.0,43000000.0,0.0,0.0,106474819031.0,2475570264533.0,1073741824.0,622770257.0,78.0,14.0,92.0,0.0,23007232.0,349966336.0,449466368.0
0.0,17272.0,0.0,0.016,0.0091,1300000.0,43000000.0,0.0,0.0,106474819031.0,2475570264533.0,1073741824.0,622770257.0,78.0,14.0,92.0,0.0,23007232.0,349966336.0,449466368.0
0.0,17272.0,0.0,0.016,0.0091,1300000.0,43000000.0,0.0,0.0,106474819031.0,2475570264533.0,1073741824.0,622770257.0,78.0,14.0,92.0,0.0,23007232.0,349966336.0,449466368.0
0.0,17272.0,0.0,0.016,0.0091,1300000.0,43000000.0,0.0,0.0,106474819031.0,2475570264533.0,1073741824.0,622770257.0,78.0,14.0,92.0,0.0,23007232.0,349966336.0,449466368.0
0.0,1247927.0,0.0,0.32,0.072,1300000.0,43000000.0,0.0,0.0,106474819031.0,2475570264533.0,1073741824.0,622770257.0,81.0,13.0,94.0,0.0,23031808.0,359038976.0,450195456.0
0.0,1247927.0,0.0,0.32,0.072,1300000.0,41000000.0,0.0,0.0,106497675065.0,2476238742766.0,1073741824.0,622770257.0,81.0,13.0,94.0,0.0,23031808.0,359038976.0,450195456.0
0.0,1247927.0,0.0,0.32,0.072,1300000.0,41000000.0,0.0,0.0,106497675065.0,2476238742766.0,1073741824.0,622770257.0,81.0,13.0,94.0,0.0,23031808.0,359038976.0,450195456.0
0.0,1247927.0,0.0,0.32,0.072,1300000.0,41000000.0,0.0,0.0,106497675065.0,2476238742766.0,1073741824.0,622770257.0,81.0,13.0,94.0,0.0,23031808.0,359038976.0,450195456.0
0.0,1247927.0,0.0,0.32,0.072,1300000.0,41000000.0,0.0,0.0,106497675065.0,2476238742766.0,1073741824.0,622770257.0,81.0,13.0,94.0,0.0,23031808.0,359038976.0,450195456.0
0.0,1247927.0,0.0,0.32,0.072,1300000.0,41000000.0,0.0,0.0,106497675065.0,2476238742766.0,1073741824.0,622770257.0,81.0,13.0,94.0,0.0,23031808.0,359038976.0,450195456.0
0.0,1247927.0,0.0,0.32,0.072,1300000.0,41000000.0,0.0,0.0,106497675065.0,2476238742766.0,1073741824.0,622770257.0,84.0,14.0,98.0,0.0,23056384.0,355168256.0,449794048.0
0.0,2459.0,0.0,0.00082,0.055,1300000.0,51000000.0,0.0,0.0,106523978837.0,2477008643415.0,1073741824.0,622770257.0,84.0,14.0,98.0,0.0,23056384.0,355168256.0,449794048.0
0.0,2459.0,0.0,0.00082,0.055,1300000.0,51000000.0,0.0,0.0,106523978837.0,2477008643415.0,1073741824.0,622770257.0,84.0,14.0,98.0,0.0,23056384.0,355168256.0,449794048.0
0.0,2459.0,0.0,0.00082,0.055,1300000.0,51000000.0,0.0,0.0,106523978837.0,2477008643415.0,1073741824.0,622770257.0,84.0,14.0,98.0,0.0,23056384.0,355168256.0,449794048.0
0.0,2459.0,0.0,0.00082,0.055,1300000.0,51000000.0,0.0,0.0,106523978837.0,2477008643415.0,1073741824.0,622770257.0,84.0,14.0,98.0,0.0,23056384.0,355168256.0,449794048.0
0.0,2459.0,0.0,0.00082,0.055,1300000.0,51000000.0,0.0,0.0,106523978837.0,2477008643415.0,1073741824.0,622770257.0,84.0,14.0,98.0,0.0,23056384.0,355168256.0,449794048.0
0.0,2459.0,0.0,0.00082,0.055,1300000.0,51000000.0,0.0,0.0,106523978837.0,2477008643415.0,1073741824.0,622770257.0,86.0,19.0,110.0,0.0,23080960.0,353038336.0,449028096.0
0.0,2459.0,0.0,0.00082,0.055,1300000.0,51000000.0,0.0,0.0,106523978837.0,2477008643415.0,1073741824.0,622770257.0,86.0,19.0,110.0,0.0,23080960.0,353038336.0,449028096.0
0.0,1421858.0,0.0,0.5,0.17,1300000.0,54000000.0,0.0,0.0,106551835289.0,2477826876007.0,1073741824.0,622770257.0,86.0,19.0,110.0,0.0,23080960.0,353038336.0,449028096.0
0.0,1421858.0,0.0,0.5,0.17,1300000.0,54000000.0,0.0,0.0,106551835289.0,2477826876007.0,1073741824.0,622770257.0,86.0,19.0,110.0,0.0,23080960.0,353038336.0,449028096.0
0.0,1421858.0,0.0,0.5,0.17,1300000.0,54000000.0,0.0,0.0,106551835289.0,2477826876007.0,1073741824.0,622770257.0,86.0,19.0,110.0,0.0,23080960.0,353038336.0,449028096.0
0.0,1421858.0,0.0,0.5,0.17,1300000.0,54000000.0,0.0,0.0,106551835289.0,2477826876007.0,1073741824.0,622770257.0,86.0,19.0,110.0,0.0,23080960.0,353038336.0,449028096.0
0.0,1421858.0,0.0,0.5,0.17,1300000.0,54000000.0,0.0,0.0,106551835289.0,2477826876007.0,1073741824.0,622770257.0,86.0,24.0,110.0,0.0,23105536.0,347815936.0,447815680.0
0.0,1421858.0,0.0,0.5,0.17,1300000.0,54000000.0,0.0,0.0,106551835289.0,2477826876007.0,1073741824.0,622770257.0,86.0,24.0,110.0,0.0,23105536.0,347815936.0,447815680.0
0.0,1421858.0,0.0,0.5,0.17,1300000.0,54000000.0,0.0,0.0,106579378817.0,2478638423222.0,1073741824.0,622770257.0,86.0,24.0,110.0,0.0,23105536.0,347815936.0,447815680.0
0.0,2457.0,0.0,0.00043,0.079,1300000.0,54000000.0,0.0,0.0,106579378817.0,2478638423222.0,1073741824.0,622770257.0,86.0,24.0,110.0,0.0,23105536.0,347815936.0,447815680.0
0.0,2457.0,0.0,0.00043,0.079,1300000.0,54000000.0,0.0,0.0,106579378817.0,2478638423222.0,1073741824.0,622770257.0,86.0,24.0,110.0,0.0,23105536.0,347815936.0,447815680.0
0.0,2457.0,0.0,0.00043,0.079,1300000.0,54000000.0,0.0,0.0,106579378817.0,2478638423222.0,1073741824.0,622770257.0,86.0,24.0,110.0,0.0,23105536.0,347815936.0,447815680.0
0.0,2457.0,0.0,0.00043,0.079,1300000.0,54000000.0,0.0,0.0,106579378817.0,2478638423222.0,1073741824.0,622770257.0,86.0,21.0,110.0,0.0,23138304.0,358977536.0,447598592.0
0.0,2457.0,0.0,0.00043,0.079,1300000.0,54000000.0,0.0,0.0,106579378817.0,2478638423222.0,1073741824.0,622770257.0,86.0,21.0,110.0,0.0,23138304.0,358977536.0,447598592.0
0.0,2457.0,0.0,0.00043,0.079,1300000.0,54000000.0,0.0,0.0,106579378817.0,2478638423222.0,1073741824.0,622770257.0,86.0,21.0,110.0,0.0,23138304.0,358977536.0,447598592.0
0.0,1490397.0,0.0,0.24,0.12,1300000.0,54000000.0,0.0,0.0,106607144307.0,2479457011558.0,1073741824.0,622770257.0,86.0,21.0,110.0,0.0,23138304.0,358977536.0,447598592.0
0.0,1490397.0,0.0,0.24,0.12,1300000.0,54000000.0,0.0,0.0,106607144307.0,2479457011558.0,1073741824.0,622770257.0,86.0,21.0,110.0,0.0,23138304.0,358977536.0,447598592.0
0.0,1490397.0,0.0,0.24,0.12,1300000.0,54000000.0,0.0,0.0,106607144307.0,2479457011558.0,1073741824.0,622770257.0,86.0,21.0,110.0,0.0,23138304.0,358977536.0,447598592.0
0.0,1490397.0,0.0,0.24,0.12,1300000.0,54000000.0,0.0,0.0,106607144307.0,2479457011558.0,1073741824.0,622770257.0,86.0,21.0,110.0,0.0,23138304.0,358977536.0,447598592.0
0.0,1490397.0,0.0,0.24,0.12,1300000.0,54000000.0,0.0,0.0,106607144307.0,2479457011558.0,1073741824.0,622770257.0,86.0,24.0,110.0,0.0,23162880.0,355696640.0,449413120.0
0.0,1490397.0,0.0,0.24,0.12,1300000.0,54000000.0,0.0,0.0,106607144307.0,2479457011558.0,1073741824.0,622770257.0,86.0,24.0,110.0,0.0,23162880.0,355696640.0,449413120.0
0.0,1490397.0,0.0,0.24,0.12,2500000.0,58000000.0,0.0,0.0,106636956171.0,2480335656923.0,1073741824.0,622770257.0,86.0,24.0,110.0,0.0,23162880.0,355696640.0,449413120.0
0.0,3250.0,0.0,0.00022,0.032,2500000.0,58000000.0,0.0,0.0,106636956171.0,2480335656923.0,1073741824.0,622770257.0,86.0,24.0,110.0,0.0,23162880.0,355696640.0,449413120.0
0.0,3250.0,0.0,0.00022,0.032,2500000.0,58000000.0,0.0,0.0,106636956171.0,2480335656923.0,1073741824.0,622770257.0,86.0,24.0,110.0,0.0,23162880.0,355696640.0,449413120.0
0.0,3250.0,0.0,0.00022,0.032,2500000.0,58000000.0,0.0,0.0,106636956171.0,2480335656923.0,1073741824.0,622770257.0,86.0,24.0,110.0,0.0,23162880.0,355696640.0,449413120.0
0.0,3250.0,0.0,0.00022,0.032,2500000.0,58000000.0,0.0,0.0,106636956171.0,2480335656923.0,1073741824.0,622770257.0,86.0,24.0,110.0,0.0,23162880.0,355696640.0,449413120.0
0.0,3250.0,0.0,0.00022,0.032,2500000.0,58000000.0,0.0,0.0,106636956171.0,2480335656923.0,1073741824.0,622770257.0,94.0,13.0,110.0,0.0,23187456.0,360615936.0,450170880.0
0.0,3250.0,0.0,0.00022,0.032,2500000.0,58000000.0,0.0,0.0,106636956171.0,2480335656923.0,1073741824.0,622770257.0,94.0,13.0,110.0,0.0,23187456.0,360615936.0,450170880.0
0.0,3250.0,0.0,0.00022,0.032,2500000.0,56000000.0,0.0,0.0,106666062671.0,2481193918311.0,1073741824.0,622770257.0,94.0,13.0,110.0,0.0,23187456.0,360615936.0,450170880.0
11530.0,1651852.0,0.31,0.53,0.1,2500000.0,56000000.0,0.0,0.0,106666062671.0,2481193918311.0,1073741824.0,622770257.0,94.0,13.0,110.0,0.0,23187456.0,360615936.0,450170880.0
11530.0,1651852.0,0.31,0.53,0.1,2500000.0,56000000.0,0.0,0.0,106666062671.0,2481193918311.0,1073741824.0,622770257.0,94.0,13.0,110.0,0.0,23187456.0,360615936.0,450170880.0
11530.0,1651852.0,0.31,0.53,0.1,2500000.0,56000000.0,0.0,0.0,106666062671.0,2481193918311.0,1073741824.0,622770257.0,94.0,13.0,110.0,0.0,23187456.0,360615936.0,450170880.0
11530.0,1651852.0,0.31,0.53,0.1,2500000.0,56000000.0,0.0,0.0,106666062671.0,2481193918311.0,1073741824.0,622770257.0,91.0,18.0,110.0,0.0,23212032.0,358895616.0,449998848.0
11530.0,1651852.0,0.31,0.53,0.1,2500000.0,56000000.0,0.0,0.0,106666062671.0,2481193918311.0,1073741824.0,622770257.0,91.0,18.0,110.0,0.0,23212032.0,358895616.0,449998848.0
11530.0,1651852.0,0.31,0.53,0.1,2500000.0,58000000.0,0.0,0.0,106697250507.0,2482113186865.0,1073741824.0,622770257.0,91.0,18.0,110.0,0.0,23212032.0,358895616.0,449998848.0
0.0,2410.0,0.0,0.00021,0.014,2500000.0,58000000.0,0.0,0.0,106697250507.0,2482113186865.0,1073741824.0,622770257.0,91.0,18.0,110.0,0.0,23212032.0,358895616.0,449998848.0
0.0,2410.0,0.0,0.00021,0.014,2500000.0,58000000.0,0.0,0.0,106697250507.0,2482113186865.0,1073741824.0,622770257.0,91.0,18.0,110.0,0.0,23212032.0,358895616.0,449998848.0
0.0,2410.0,0.0,0.00021,0.014,2500000.0,58000000.0,0.0,0.0,106697250507.0,2482113186865.0,1073741824.0,622770257.0,91.0,18.0,110.0,0.0,23212032.0,358895616.0,449998848.0
0.0,2410.0,0.0,0.00021,0.014,2500000.0,58000000.0,0.0,0.0,106697250507.0,2482113186865.0,1073741824.0,622770257.0,91.0,18.0,110.0,0.0,23212032.0,358895616.0,449998848.0
0.0,2410.0,0.0,0.00021,0.014,2500000.0,58000000.0,0.0,0.0,106697250507.0,2482113186865.0,1073741824.0,622770257.0,83.0,25.0,110.0,0.0,23244800.0,359055360.0,448360448.0
0.0,2410.0,0.0,0.00021,0.014,2500000.0,58000000.0,0.0,0.0,106697250507.0,2482113186865.0,1073741824.0,622770257.0,83.0,25.0,110.0,0.0,23244800.0,359055360.0,448360448.0
0.0,2410.0,0.0,0.00021,0.014,2500000.0,58000000.0,0.0,0.0,106697250507.0,2482113186865.0,1073741824.0,622770257.0,83.0,25.0,110.0,0.0,23244800.0,359055360.0,448360448.0
0.0,1678020.0,0.0,0.75,0.014,1300000.0,50000000.0,0.0,0.0,106724073107.0,2482903183846.0,1073741824.0,622770257.0,83.0,25.0,110.0,0.0,23244800.0,359055360.0,448360448.0
0.0,1678020.0,0.0,0.75,0.014,1300000.0,50000000.0,0.0,0.0,106724073107.0,2482903183846.0,1073741824.0,622770257.0,83.0,25.0,110.0,0.0,23244800.0,359055360.0,448360448.0
0.0,1678020.0,0.0,0.75,0.014,1300000.0,50000000.0,0.0,0.0,106724073107.0,2482903183846.0,1073741824.0,622770257.0,83.0,25.0,110.0,0.0,23244800.0,359055360.0,448360448.0
0.0,1678020.0,0.0,0.75,0.014,1300000.0,50000000.0,0.0,0.0,106724073107.0,2482903183846.0,1073741824.0,622770257.0,83.0,25.0,110.0,0.0,23244800.0,359055360.0,448360448.0
0.0,1678020.0,0.0,0.75,0.014,1300000.0,50000000.0,0.0,0.0,106724073107.0,2482903183846.0,1073741824.0,622770257.0,86.0,23.0,110.0,0.0,23269376.0,356032512.0,448417792.0
0.0,1678020.0,0.0,0.75,0.014,1300000.0,50000000.0,0.0,0.0,106724073107.0,2482903183846.0,1073741824.0,622770257.0,86.0,23.0,110.0,0.0,23269376.0,356032512.0,448417792.0
0.0,1678020.0,0.0,0.75,0.014,1300000.0,50000000.0,0.0,0.0,106724073107.0,2482903183846.0,1073741824.0,622770257.0,86.0,23.0,110.0,0.0,23269376.0,356032512.0,448417792.0
0.0,1678020.0,0.0,0.75,0.014,1300000.0,55000000.0,0.0,0.0,106752421305.0,2483737362997.0,1073741824.0,622770257.0,86.0,23.0,110.0,0.0,23269376.0,356032512.0,448417792.0
0.0,6822.0,0.0,0.0016,0.016,1300000.0,55000000.0,0.0,0.0,106752421305.0,2483737362997.0,1073741824.0,622770257.0,86.0,23.0,110.0,0.0,23269376.0,356032512.0,448417792.0
0.0,6822.0,0.0,0.0016,0.016,1300000.0,55000000.0,0.0,0.0,106752421305.0,2483737362997.0,1073741824.0,622770257.0,86.0,23.0,110.0,0.0,23269376.0,356032512.0,448417792.0
0.0,6822.0,0.0,0.0016,0.016,1300000.0,55000000.0,0.0,0.0,106752421305.0,2483737362997.0,1073741824.0,622770257.0,87.0,21.0,110.0,0.0,23298048.0,353218560.0,448450560.0
0.0,6822.0,0.0,0.0016,0.016,1300000.0,55000000.0,0.0,0.0,106752421305.0,2483737362997.0,1073741824.0,622770257.0,87.0,21.0,110.0,0.0,23298048.0,353218560.0,448450560.0
0.0,6822.0,0.0,0.0016,0.016,1300000.0,55000000.0,0.0,0.0,106752421305.0,2483737362997.0,1073741824.0,622770257.0,87.0,21.0,110.0,0.0,23298048.0,353218560.0,448450560.0
0.0,6822.0,0.0,0.0016,0.016,1300000.0,50000000.0,0.0,0.0,106779768503.0,2484544152067.0,1073741824.0,622770257.0,87.0,21.0,110.0,0.0,23298048.0,353218560.0,448450560.0
272.0,1489950.0,0.0051,0.99,0.016,1300000.0,50000000.0,0.0,0.0,106779768503.0,2484544152067.0,1073741824.0,622770257.0,87.0,21.0,110.0,0.0,23298048.0,353218560.0,448450560.0
272.0,1489950.0,0.0051,0.99,0.016,1300000.0,50000000.0,0.0,0.0,106779768503.0,2484544152067.0,1073741824.0,622770257.0,87.0,21.0,110.0,0.0,23298048.0,353218560.0,448450560.0
272.0,1489950.0,0.0051,0.99,0.016,1300000.0,50000000.0,0.0,0.0,106779768503.0,2484544152067.0,1073741824.0,622770257.0,87.0,21.0,110.0,0.0,23298048.0,353218560.0,448450560.0
272.0,1489950.0,0.0051,0.99,0.016,1300000.0,50000000.0,0.0,0.0,106779768503.0,2484544152067.0,1073741824.0,622770257.0,91.0,19.0,110.0,0.0,23322624.0,351141888.0,448237568.0
272.0,1489950.0,0.0051,0.99,0.016,1300000.0,50000000.0,0.0,0.0,106779768503.0,2484544152067.0,1073741824.0,622770257.0,91.0,19.0,110.0,0.0,23322624.0,351141888.0,448237568.0
272.0,1489950.0,0.0051,0.99,0.016,1300000.0,50000000.0,0.0,0.0,106779768503.0,2484544152067.0,1073741824.0,622770257.0,91.0,19.0,110.0,0.0,23322624.0,351141888.0,448237568.0
272.0,1489950.0,0.0051,0.99,0.016,1300000.0,50000000.0,0.0,0.0,106779768503.0,2484544152067.0,1073741824.0,622770257.0,91.0,19.0,110.0,0.0,23322624.0,351141888.0,448237568.0
272.0,1489950.0,0.0051,0.99,0.016,2500000.0,59000000.0,0.0,0.0,106809977823.0,2485435417088.0,1073741824.0,622770257.0,91.0,19.0,110.0,0.0,23322624.0,351141888.0,448237568.0
0.0,2457.0,0.0,0.0002,0.028,2500000.0,59000000.0,0.0,0.0,106809977823.0,2485435417088.0,1073741824.0,622770257.0,91.0,19.0,110.0,0.0,23322624.0,351141888.0,448237568.0
0.0,2457.0,0.0,0.0002,0.028,2500000.0,59000000.0,0.0,0.0,106809977823.0,2485435417088.0,1073741824.0,622770257.0,91.0,19.0,110.0,0.0,23322624.0,351141888.0,448237568.0
0.0,2457.0,0.0,0.0002,0.028,2500000.0,59000000.0,0.0,0.0,106809977823.0,2485435417088.0,1073741824.0,622770257.0,90.0,20.0,110.0,0.0,23347200.0,348033024.0,448348160.0
0.0,2457.0,0.0,0.0002,0.028,2500000.0,59000000.0,0.0,0.0,106809977823.0,2485435417088.0,1073741824.0,622770257.0,90.0,20.0,110.0,0.0,23347200.0,348033024.0,448348160.0
0.0,2457.0,0.0,0.0002,0.028,2500000.0,59000000.0,0.0,0.0,106809977823.0,2485435417088.0,1073741824.0,622770257.0,90.0,20.0,110.0,0.0,23347200.0,348033024.0,448348160.0
0.0,2457.0,0.0,0.0002,0.028,1300000.0,51000000.0,0.0,0.0,106838087407.0,2486265193942.0,1073741824.0,622770257.0,90.0,20.0,110.0,0.0,23347200.0,348033024.0,448348160.0
0.0,1622814.0,0.0,0.68,0.031,1300000.0,51000000.0,0.0,0.0,106838087407.0,2486265193942.0,1073741824.0,622770257.0,90.0,20.0,110.0,0.0,23347200.0,348033024.0,448348160.0
0.0,1622814.0,0.0,0.68,0.031,1300000.0,51000000.0,0.0,0.0,106838087407.0,2486265193942.0,1073741824.0,622770257.0,90.0,20.0,110.0,0.0,23347200.0,348033024.0,448348160.0
0.0,1622814.0,0.0,0.68,0.031,1300000.0,51000000.0,0.0,0.0,106838087407.0,2486265193942.0,1073741824.0,622770257.0,90.0,20.0,110.0,0.0,23347200.0,348033024.0,448348160.0
0.0,1622814.0,0.0,0.68,0.031,1300000.0,51000000.0,0.0,0.0,106838087407.0,2486265193942.0,1073741824.0,622770257.0,89.0,22.0,110.0,0.0,23379968.0,360239104.0,447873024.0
0.0,1622814.0,0.0,0.68,0.031,1300000.0,51000000.0,0.0,0.0,106838087407.0,2486265193942.0,1073741824.0,622770257.0,89.0,22.0,110.0,0.0,23379968.0,360239104.0,447873024.0
0.0,1622814.0,0.0,0.68,0.031,1300000.0,51000000.0,0.0,0.0,106838087407.0,2486265193942.0,1073741824.0,622770257.0,89.0,22.0,110.0,0.0,23379968.0,360239104.0,447873024.0
0.0,1622814.0,0.0,0.68,0.031,1300000.0,51000000.0,0.0,0.0,106838087407.0,2486265193942.0,1073741824.0,622770257.0,89.0,22.0,110.0,0.0,23379968.0,360239104.0,447873024.0
1091.0,5457.0,0.019,0.00023,0.033,2500000.0,56000000.0,0.0,0.0,106867523329.0,2487133337578.0,1073741824.0,622770257.0,89.0,22.0,110.0,0.0,23379968.0,360239104.0,447873024.0
1091.0,5457.0,0.019,0.00023,0.033,2500000.0,56000000.0,0.0,0.0,106867523329.0,2487133337578.0,1073741824.0,622770257.0,89.0,22.0,110.0,0.0,23379968.0,360239104.0,447873024.0
1091.0,5457.0,0.019,0.00023,0.033,2500000.0,56000000.0,0.0,0.0,106867523329.0,2487133337578.0,1073741824.0,622770257.0,89.0,22.0,110.0,0.0,23379968.0,360239104.0,447873024.0
1091.0,5457.0,0.019,0.00023,0.033,2500000.0,56000000.0,0.0,0.0,106867523329.0,2487133337578.0,1073741824.0,622770257.0,89.0,20.0,110.0,0.0,23404544.0,360263680.0,449073152.0
1091.0,5457.0,0.019,0.00023,0.033,2500000.0,56000000.0,0.0,0.0,106867523329.0,2487133337578.0,1073741824.0,622770257.0,89.0,20.0,110.0,0.0,23404544.0,360263680.0,449073152.0
1091.0,5457.0,0.019,0.00023,0.033,2500000.0,56000000.0,0.0,0.0,106867523329.0,2487133337578.0,1073741824.0,622770257.0,89.0,20.0,110.0,0.0,23404544.0,360263680.0,449073152.0
0.0,1637583.0,0.0,0.45,0.15,1300000.0,54000000.0,0.0,0.0,106896594965.0,2487990556405.0,1073741824.0,622770257.0,89.0,20.0,110.0,0.0,23404544.0,360263680.0,449073152.0
0.0,1637583.0,0.0,0.45,0.15,1300000.0,54000000.0,0.0,0.0,106896594965.0,2487990556405.0,1073741824.0,622770257.0,89.0,20.0,110.0,0.0,23404544.0,360263680.0,449073152.0
0.0,1637583.0,0.0,0.45,0.15,1300000.0,54000000.0,0.0,0.0,106896594965.0,2487990556405.0,1073741824.0,622770257.0,89.0,20.0,110.0,0.0,23404544.0,360263680.0,449073152.0
0.0,1637583.0,0.0,0.45,0.15,1300000.0,54000000.0,0.0,0.0,106896594965.0,2487990556405.0,1073741824.0,622770257.0,89.0,20.0,110.0,0.0,23404544.0,360263680.0,449073152.0
0.0,1637583.0,0.0,0.45,0.15,1300000.0,54000000.0,0.0,0.0,106896594965.0,2487990556405.0,1073741824.0,622770257.0,87.0,23.0,110.0,0.0,23437312.0,360415232.0,448872448.0
0.0,1637583.0,0.0,0.45,0.15,1300000.0,54000000.0,0.0,0.0,106896594965.0,2487990556405.0,1073741824.0,622770257.0,87.0,23.0,110.0,0.0,23437312.0,360415232.0,448872448.0
0.0,1637583.0,0.0,0.45,0.15,1300000.0,54000000.0,0.0,0.0,106896594965.0,2487990556405.0,1073741824.0,622770257.0,87.0,23.0,110.0,0.0,23437312.0,360415232.0,448872448.0
0.0,2452.0,0.0,0.002,0.063,1300000.0,49000000.0,0.0,0.0,106923309891.0,2488777233618.0,1073741824.0,622770257.0,87.0,23.0,110.0,0.0,23437312.0,360415232.0,448872448.0
0.0,2452.0,0.0,0.002,0.063,1300000.0,49000000.0,0.0,0.0,106923309891.0,2488777233618.0,1073741824.0,622770257.0,87.0,23.0,110.0,0.0,23437312.0,360415232.0,448872448.0
0.0,2452.0,0.0,0.002,0.063,1300000.0,49000000.0,0.0,0.0,106923309891.0,2488777233618.0,1073741824.0,622770257.0,87.0,23.0,110.0,0.0,23437312.0,360415232.0,448872448.0
0.0,2452.0,0.0,0.002,0.063,1300000.0,49000000.0,0.0,0.0,106923309891.0,2488777233618.0,1073741824.0,622770257.0,87.0,23.0,110.0,0.0,23437312.0,360415232.0,448872448.0
0.0,2452.0,0.0,0.002,0.063,1300000.0,49000000.0,0.0,0.0,106923309891.0,2488777233618.0,1073741824.0,622770257.0,85.0,23.0,110.0,0.0,23461888.0,357064704.0,447791104.0
0.0,2452.0,0.0,0.002,0.063,1300000.0,49000000.0,0.0,0.0,106923309891.0,2488777233618.0,1073741824.0,622770257.0,85.0,23.0,110.0,0.0,23461888.0,357064704.0,447791104.0
0.0,2452.0,0.0,0.002,0.063,1300000.0,49000000.0,0.0,0.0,106923309891.0,2488777233618.0,1073741824.0,622770257.0,85.0,23.0,110.0,0.0,23461888.0,357064704.0,447791104.0
0.0,2452.0,0.0,0.002,0.063,1300000.0,49000000.0,0.0,0.0,106950350835.0,2489573685946.0,1073741824.0,622770257.0,85.0,23.0,110.0,0.0,23461888.0,357064704.0,447791104.0
0.0,1503237.0,0.0,0.41,0.16,1300000.0,49000000.0,0.0,0.0,106950350835.0,2489573685946.0,1073741824.0,622770257.0,85.0,23.0,110.0,0.0,23461888.0,357064704.0,447791104.0
0.0,1503237.0,0.0,0.41,0.16,1300000.0,49000000.0,0.0,0.0,106950350835.0,2489573685946.0,1073741824.0,622770257.0,85.0,23.0,110.0,0.0,23461888.0,357064704.0,447791104.0
0.0,1503237.0,0.0,0.41,0.16,1300000.0,49000000.0,0.0,0.0,106950350835.0,2489573685946.0,1073741824.0,622770257.0,85.0,23.0,110.0,0.0,23461888.0,357064704.0,447791104.0
0.0,1503237.0,0.0,0.41,0.16,1300000.0,49000000.0,0.0,0.0,106950350835.0,2489573685946.0,1073741824.0,622770257.0,86.0,24.0,110.0,0.0,23486464.0,354594816.0,449544192.0
0.0,1503237.0,0.0,0.41,0.16,1300000.0,49000000.0,0.0,0.0,106950350835.0,2489573685946.0,1073741824.0,622770257.0,86.0,24.0,110.0,0.0,23486464.0,354594816.0,449544192.0
0.0,1503237.0,0.0,0.41,0.16,1300000.0,49000000.0,0.0,0.0,106950350835.0,2489573685946.0,1073741824.0,622770257.0,86.0,24.0,110.0,0.0,23486464.0,354594816.0,449544192.0
0.0,1503237.0,0.0,0.41,0.16,1300000.0,50000000.0,0.0,0.0,106977822375.0,2490383897272.0,1073741824.0,622770257.0,86.0,24.0,110.0,0.0,23486464.0,354594816.0,449544192.0
0.0,2457.0,0.0,0.00025,0.053,1300000.0,50000000.0,0.0,0.0,106977822375.0,2490383897272.0,1073741824.0,622770257.0,86.0,24.0,110.0,0.0,23486464.0,354594816.0,449544192.0
0.0,2457.0,0.0,0.00025,0.053,1300000.0,50000000.0,0.0,0.0,106977822375.0,2490383897272.0,1073741824.0,622770257.0,86.0,24.0,110.0,0.0,23486464.0,354594816.0,449544192.0
0.0,2457.0,0.0,0.00025,0.053,1300000.0,50000000.0,0.0,0.0,106977822375.0,2490383897272.0,1073741824.0,622770257.0,83.0,23.0,110.0,0.0,23511040.0,352112640.0,448823296.0
0.0,2457.0,0.0,0.00025,0.053,1300000.0,50000000.0,0.0,0.0,106977822375.0,2490383897272.0,1073741824.0,622770257.0,83.0,23.0,110.0,0.0,23511040.0,352112640.0,448823296.0
0.0,2457.0,0.0,0.00025,0.053,1300000.0,50000000.0,0.0,0.0,106977822375.0,2490383897272.0,1073741824.0,622770257.0,83.0,23.0,110.0,0.0,23511040.0,352112640.0,448823296.0
0.0,2457.0,0.0,0.00025,0.053,1300000.0,50000000.0,0.0,0.0,106977822375.0,2490383897272.0,1073741824.0,622770257.0,83.0,23.0,110.0,0.0,23511040.0,352112640.0,448823296.0
0.0,2457.0,0.0,0.00025,0.053,1300000.0,50000000.0,0.0,0.0,107005304873.0,2491193092997.0,1073741824.0,622770257.0,83.0,23.0,110.0,0.0,23511040.0,352112640.0,448823296.0
0.0,817076.0,0.0,0.43,0.023,1300000.0,50000000.0,0.0,0.0,107005304873.0,2491193092997.0,1073741824.0,622770257.0,83.0,23.0,110.0,0.0,23511040.0,352112640.0,448823296.0
0.0,817076.0,0.0,0.43,0.023,1300000.0,50000000.0,0.0,0.0,107005304873.0,2491193092997.0,1073741824.0,622770257.0,83.0,23.0,110.0,0.0,23511040.0,352112640.0,448823296.0
0.0,817076.0,0.0,0.43,0.023,1300000.0,50000000.0,0.0,0.0,107005304873.0,2491193092997.0,1073741824.0,622770257.0,93.0,17.0,110.0,0.0,23535616.0,349728768.0,449351680.0
0.0,817076.0,0.0,0.43,0.023,1300000.0,50000000.0,0.0,0.0,107005304873.0,2491193092997.0,1073741824.0,622770257.0,93.0,17.0,110.0,0.0,23535616.0,349728768.0,449351680.0
0.0,817076.0,0.0,0.43,0.023,1300000.0,50000000.0,0.0,0.0,107005304873.0,2491193092997.0,1073741824.0,622770257.0,93.0,17.0,110.0,0.0,23535616.0,349728768.0,449351680.0
0.0,817076.0,0.0,0.43,0.023,2500000.0,58000000.0,0.0,0.0,107036335879.0,2492109037923.0,1073741824.0,622770257.0,93.0,17.0,110.0,0.0,23535616.0,349728768.0,449351680.0
0.0,817076.0,0.0,0.43,0.023,2500000.0,58000000.0,0.0,0.0,107036335879.0,2492109037923.0,1073741824.0,622770257.0,93.0,17.0,110.0,0.0,23535616.0,349728768.0,449351680.0
0.0,703578.0,0.0,0.58,0.054,2500000.0,58000000.0,0.0,0.0,107036335879.0,2492109037923.0,1073741824.0,622770257.0,93.0,17.0,110.0,0.0,23535616.0,349728768.0,449351680.0
0.0,703578.0,0.0,0.58,0.054,2500000.0,58000000.0,0.0,0.0,107036335879.0,2492109037923.0,1073741824.0,622770257.0,93.0,17.0,110.0,0.0,23535616.0,349728768.0,449351680.0
0.0,703578.0,0.0,0.58,0.054,2500000.0,58000000.0,0.0,0.0,107036335879.0,2492109037923.0,1073741824.0,622770257.0,93.0,17.0,110.0,0.0,23580672.0,352530432.0,449613824.0
0.0,703578.0,0.0,0.58,0.054,2500000.0,58000000.0,0.0,0.0,107036335879.0,2492109037923.0,1073741824.0,622770257.0,95.0,17.0,110.0,0.0,23580672.0,352530432.0,449613824.0
0.0,703578.0,0.0,0.58,0.054,2500000.0,58000000.0,0.0,0.0,107036335879.0,2492109037923.0,1073741824.0,622770257.0,95.0,17.0,110.0,0.0,23580672.0,352530432.0,449613824.0
0.0,703578.0,0.0,0.58,0.054,3800000.0,110000000.0,0.0,0.0,107095860901.0,2493864009975.0,1073741824.0,622770257.0,95.0,17.0,110.0,0.0,23580672.0,352530432.0,449613824.0
0.0,703578.0,0.0,0.58,0.054,3800000.0,110000000.0,0.0,0.0,107095860901.0,2493864009975.0,1073741824.0,622770257.0,95.0,17.0,110.0,0.0,23580672.0,352530432.0,449613824.0
13407.0,1605839.0,0.0069,0.87,0.039,3800000.0,110000000.0,0.0,0.0,107095860901.0,2493864009975.0,1073741824.0,622770257.0,95.0,17.0,110.0,0.0,23580672.0,352530432.0,449613824.0
13407.0,1605839.0,0.0069,0.87,0.039,3800000.0,110000000.0,0.0,0.0,107095860901.0,2493864009975.0,1073741824.0,622770257.0,95.0,17.0,110.0,0.0,23580672.0,352530432.0,449613824.0
13407.0,1605839.0,0.0069,0.87,0.039,3800000.0,110000000.0,0.0,0.0,107095860901.0,2493864009975.0,1073741824.0,622770257.0,90.0,20.0,110.0,0.0,23605248.0,350060544.0,449445888.0
13407.0,1605839.0,0.0069,0.87,0.039,3800000.0,110000000.0,0.0,0.0,107095860901.0,2493864009975.0,1073741824.0,622770257.0,90.0,20.0,110.0,0.0,23605248.0,350060544.0,449445888.0
13407.0,1605839.0,0.0069,0.87,0.039,3800000.0,110000000.0,0.0,0.0,107095860901.0,2493864009975.0,1073741824.0,622770257.0,90.0,20.0,110.0,0.0,23605248.0,350060544.0,449445888.0
13407.0,1605839.0,0.0069,0.87,0.039,1300000.0,54000000.0,0.0,0.0,107125398429.0,2494734513469.0,1073741824.0,622770257.0,90.0,20.0,110.0,0.0,23605248.0,350060544.0,449445888.0
0.0,296431.0,0.0,0.13,0.14,1300000.0,54000000.0,0.0,0.0,107125398429.0,2494734513469.0,1073741824.0,622770257.0,90.0,20.0,110.0,0.0,23605248.0,350060544.0,449445888.0
0.0,296431.0,0.0,0.13,0.14,1300000.0,54000000.0,0.0,0.0,107125398429.0,2494734513469.0,1073741824.0,622770257.0,90.0,20.0,110.0,0.0,23605248.0,350060544.0,449445888.0
0.0,296431.0,0.0,0.13,0.14,1300000.0,54000000.0,0.0,0.0,107125398429.0,2494734513469.0,1073741824.0,622770257.0,90.0,20.0,110.0,0.0,23605248.0,350060544.0,449445888.0
0.0,296431.0,0.0,0.13,0.14,1300000.0,54000000.0,0.0,0.0,107125398429.0,2494734513469.0,1073741824.0,622770257.0,90.0,20.0,110.0,0.0,23629824.0,348049408.0,449482752.0
0.0,296431.0,0.0,0.13,0.14,1300000.0,54000000.0,0.0,0.0,107125398429.0,2494734513469.0,1073741824.0,622770257.0,90.0,20.0,110.0,0.0,23629824.0,348049408.0,449482752.0
0.0,296431.0,0.0,0.13,0.14,1300000.0,54000000.0,0.0,0.0,107125398429.0,2494734513469.0,1073741824.0,622770257.0,90.0,20.0,110.0,0.0,23629824.0,348049408.0,449482752.0
0.0,296431.0,0.0,0.13,0.14,2500000.0,58000000.0,0.0,0.0,107154821029.0,2495603556949.0,1073741824.0,622770257.0,90.0,20.0,110.0,0.0,23629824.0,348049408.0,449482752.0
0.0,1432486.0,0.0,0.75,0.019,2500000.0,58000000.0,0.0,0.0,107154821029.0,2495603556949.0,1073741824.0,622770257.0,90.0,20.0,110.0,0.0,23629824.0,348049408.0,449482752.0
0.0,1432486.0,0.0,0.75,0.019,2500000.0,58000000.0,0.0,0.0,107154821029.0,2495603556949.0,1073741824.0,622770257.0,90.0,20.0,110.0,0.0,23629824.0,348049408.0,449482752.0
0.0,1432486.0,0.0,0.75,0.019,2500000.0,58000000.0,0.0,0.0,107154821029.0,2495603556949.0,1073741824.0,622770257.0,89.0,20.0,110.0,0.0,23654400.0,359645184.0,448737280.0
0.0,1432486.0,0.0,0.75,0.019,2500000.0,58000000.0,0.0,0.0,107154821029.0,2495603556949.0,1073741824.0,622770257.0,89.0,20.0,110.0,0.0,23654400.0,359645184.0,448737280.0
0.0,1432486.0,0.0,0.75,0.019,2500000.0,58000000.0,0.0,0.0,107154821029.0,2495603556949.0,1073741824.0,622770257.0,89.0,20.0,110.0,0.0,23654400.0,359645184.0,448737280.0
0.0,1432486.0,0.0,0.75,0.019,2500000.0,58000000.0,0.0,0.0,107154821029.0,2495603556949.0,1073741824.0,622770257.0,89.0,20.0,110.0,0.0,23654400.0,359645184.0,448737280.0
0.0,1432486.0,0.0,0.75,0.019,1300000.0,53000000.0,0.0,0.0,107183782305.0,2496455767826.0,1073741824.0,622770257.0,89.0,20.0,110.0,0.0,23654400.0,359645184.0,448737280.0
0.0,2446.0,0.0,0.0019,0.097,1300000.0,53000000.0,0.0,0.0,107183782305.0,2496455767826.0,1073741824.0,622770257.0,89.0,20.0,110.0,0.0,23654400.0,359645184.0,448737280.0
0.0,2446.0,0.0,0.0019,0.097,1300000.0,53000000.0,0.0,0.0,107183782305.0,2496455767826.0,1073741824.0,622770257.0,89.0,20.0,110.0,0.0,23654400.0,359645184.0,448737280.0
0.0,2446.0,0.0,0.0019,0.097,1300000.0,53000000.0,0.0,0.0,107183782305.0,2496455767826.0,1073741824.0,622770257.0,87.0,20.0,110.0,0.0,23678976.0,356868096.0,449265664.0
0.0,2446.0,0.0,0.0019,0.097,1300000.0,53000000.0,0.0,0.0,107183782305.0,2496455767826.0,1073741824.0,622770257.0,87.0,20.0,110.0,0.0,23678976.0,356868096.0,449265664.0
0.0,2446.0,0.0,0.0019,0.097,1300000.0,53000000.0,0.0,0.0,107183782305.0,2496455767826.0,1073741824.0,622770257.0,87.0,20.0,110.0,0.0,23678976.0,356868096.0,449265664.0
0.0,2446.0,0.0,0.0019,0.097,1300000.0,53000000.0,0.0,0.0,107183782305.0,2496455767826.0,1073741824.0,622770257.0,87.0,20.0,110.0,0.0,23678976.0,356868096.0,449265664.0
0.0,2446.0,0.0,0.0019,0.097,1300000.0,51000000.0,0.0,0.0,107211506767.0,2497273241632.0,1073741824.0,622770257.0,87.0,20.0,110.0,0.0,23678976.0,356868096.0,449265664.0
0.0,1617507.0,0.0,0.73,0.13,1300000.0,51000000.0,0.0,0.0,107211506767.0,2497273241632.0,1073741824.0,622770257.0,87.0,20.0,110.0,0.0,23678976.0,356868096.0,449265664.0
0.0,1617507.0,0.0,0.73,0.13,1300000.0,51000000.0,0.0,0.0,107211506767.0,2497273241632.0,1073741824.0,622770257.0,87.0,20.0,110.0,0.0,23678976.0,356868096.0,449265664.0
0.0,1617507.0,0.0,0.73,0.13,1300000.0,51000000.0,0.0,0.0,107211506767.0,2497273241632.0,1073741824.0,622770257.0,88.0,23.0,110.0,0.0,23711744.0,354373632.0,449683456.0
0.0,1617507.0,0.0,0.73,0.13,1300000.0,51000000.0,0.0,0.0,107211506767.0,2497273241632.0,1073741824.0,622770257.0,88.0,23.0,110.0,0.0,23711744.0,354373632.0,449683456.0
0.0,1617507.0,0.0,0.73,0.13,1300000.0,51000000.0,0.0,0.0,107211506767.0,2497273241632.0,1073741824.0,622770257.0,88.0,23.0,110.0,0.0,23711744.0,354373632.0,449683456.0
0.0,1617507.0,0.0,0.73,0.13,1300000.0,53000000.0,0.0,0.0,107239264005.0,2498090465573.0,1073741824.0,622770257.0,88.0,23.0,110.0,0.0,23711744.0,354373632.0,449683456.0
0.0,2455.0,0.0,0.0012,0.12,1300000.0,53000000.0,0.0,0.0,107239264005.0,2498090465573.0,1073741824.0,622770257.0,88.0,23.0,110.0,0.0,23711744.0,354373632.0,449683456.0
0.0,2455.0,0.0,0.0012,0.12,1300000.0,53000000.0,0.0,0.0,107239264005.0,2498090465573.0,1073741824.0,622770257.0,88.0,23.0,110.0,0.0,23711744.0,354373632.0,449683456.0
0.0,2455.0,0.0,0.0012,0.12,1300000.0,53000000.0,0.0,0.0,107239264005.0,2498090465573.0,1073741824.0,622770257.0,88.0,23.0,110.0,0.0,23711744.0,354373632.0,449683456.0
0.0,2455.0,0.0,0.0012,0.12,1300000.0,53000000.0,0.0,0.0,107239264005.0,2498090465573.0,1073741824.0,622770257.0,89.0,22.0,110.0,0.0,23736320.0,358371328.0,449208320.0
0.0,2455.0,0.0,0.0012,0.12,1300000.0,53000000.0,0.0,0.0,107239264005.0,2498090465573.0,1073741824.0,622770257.0,89.0,22.0,110.0,0.0,23736320.0,358371328.0,449208320.0
0.0,2455.0,0.0,0.0012,0.12,1300000.0,53000000.0,0.0,0.0,107239264005.0,2498090465573.0,1073741824.0,622770257.0,89.0,22.0,110.0,0.0,23736320.0,358371328.0,449208320.0
0.0,2455.0,0.0,0.0012,0.12,1300000.0,53000000.0,0.0,0.0,107268399989.0,2498949287729.0,1073741824.0,622770257.0,89.0,22.0,110.0,0.0,23736320.0,358371328.0,449208320.0
0.0,1550199.0,0.0,0.98,0.036,1300000.0,53000000.0,0.0,0.0,107268399989.0,2498949287729.0,1073741824.0,622770257.0,89.0,22.0,110.0,0.0,23736320.0,358371328.0,449208320.0
0.0,1550199.0,0.0,0.98,0.036,1300000.0,53000000.0,0.0,0.0,107268399989.0,2498949287729.0,1073741824.0,622770257.0,89.0,22.0,110.0,0.0,23736320.0,358371328.0,449208320.0
0.0,1550199.0,0.0,0.98,0.036,1300000.0,53000000.0,0.0,0.0,107268399989.0,2498949287729.0,1073741824.0,622770257.0,88.0,23.0,110.0,0.0,23760896.0,355414016.0,449581056.0
0.0,1550199.0,0.0,0.98,0.036,1300000.0,53000000.0,0.0,0.0,107268399989.0,2498949287729.0,1073741824.0,622770257.0,88.0,23.0,110.0,0.0,23760896.0,355414016.0,449581056.0
0.0,1550199.0,0.0,0.98,0.036,1300000.0,53000000.0,0.0,0.0,107268399989.0,2498949287729.0,1073741824.0,622770257.0,88.0,23.0,110.0,0.0,23760896.0,355414016.0,449581056.0
0.0,1550199.0,0.0,0.98,0.036,1300000.0,53000000.0,0.0,0.0,107268399989.0,2498949287729.0,1073741824.0,622770257.0,88.0,23.0,110.0,0.0,23760896.0,355414016.0,449581056.0
0.0,282077.0,0.0,0.097,0.12,1300000.0,51000000.0,0.0,0.0,107296433291.0,2499776157345.0,1073741824.0,622770257.0,88.0,23.0,110.0,0.0,23760896.0,355414016.0,449581056.0
0.0,282077.0,0.0,0.097,0.12,1300000.0,51000000.0,0.0,0.0,107296433291.0,2499776157345.0,1073741824.0,622770257.0,88.0,23.0,110.0,0.0,23760896.0,355414016.0,449581056.0
0.0,282077.0,0.0,0.097,0.12,1300000.0,51000000.0,0.0,0.0,107296433291.0,2499776157345.0,1073741824.0,622770257.0,88.0,23.0,110.0,0.0,23760896.0,355414016.0,449581056.0
0.0,282077.0,0.0,0.097,0.12,1300000.0,51000000.0,0.0,0.0,107296433291.0,2499776157345.0,1073741824.0,622770257.0,90.0,18.0,110.0,0.0,23785472.0,352989184.0,449187840.0
0.0,282077.0,0.0,0.097,0.12,1300000.0,51000000.0,0.0,0.0,107296433291.0,2499776157345.0,1073741824.0,622770257.0,90.0,18.0,110.0,0.0,23785472.0,352989184.0,449187840.0
0.0,282077.0,0.0,0.097,0.12,1300000.0,51000000.0,0.0,0.0,107296433291.0,2499776157345.0,1073741824.0,622770257.0,90.0,18.0,110.0,0.0,23785472.0,352989184.0,449187840.0
0.0,282077.0,0.0,0.097,0.12,1300000.0,51000000.0,0.0,0.0,107296433291.0,2499776157345.0,1073741824.0,622770257.0,90.0,18.0,110.0,0.0,23785472.0,352989184.0,449187840.0
0.0,1289734.0,0.0,0.77,0.032,2500000.0,55000000.0,0.0,0.0,107325629465.0,2500634880627.0,1073741824.0,622770257.0,90.0,18.0,110.0,0.0,23785472.0,352989184.0,449187840.0
0.0,1289734.0,0.0,0.77,0.032,2500000.0,55000000.0,0.0,0.0,107325629465.0,2500634880627.0,1073741824.0,622770257.0,90.0,18.0,110.0,0.0,23785472.0,352989184.0,449187840.0
0.0,1289734.0,0.0,0.77,0.032,2500000.0,55000000.0,0.0,0.0,107325629465.0,2500634880627.0,1073741824.0,622770257.0,84.0,25.0,110.0,0.0,23810048.0,350003200.0,448876544.0
0.0,1289734.0,0.0,0.77,0.032,2500000.0,55000000.0,0.0,0.0,107325629465.0,2500634880627.0,1073741824.0,622770257.0,84.0,25.0,110.0,0.0,23810048.0,350003200.0,448876544.0
0.0,1289734.0,0.0,0.77,0.032,2500000.0,55000000.0,0.0,0.0,107325629465.0,2500634880627.0,1073741824.0,622770257.0,84.0,25.0,110.0,0.0,23810048.0,350003200.0,448876544.0
0.0,1289734.0,0.0,0.77,0.032,2500000.0,55000000.0,0.0,0.0,107325629465.0,2500634880627.0,1073741824.0,622770257.0,84.0,25.0,110.0,0.0,23810048.0,350003200.0,448876544.0
0.0,1289734.0,0.0,0.77,0.032,1300000.0,51000000.0,0.0,0.0,107351755153.0,2501404303334.0,1073741824.0,622770257.0,84.0,25.0,110.0,0.0,23810048.0,350003200.0,448876544.0
0.0,299081.0,0.0,0.1,0.022,1300000.0,51000000.0,0.0,0.0,107351755153.0,2501404303334.0,1073741824.0,622770257.0,84.0,25.0,110.0,0.0,23810048.0,350003200.0,448876544.0
0.0,299081.0,0.0,0.1,0.022,1300000.0,51000000.0,0.0,0.0,107351755153.0,2501404303334.0,1073741824.0,622770257.0,84.0,25.0,110.0,0.0,23810048.0,350003200.0,448876544.0
0.0,299081.0,0.0,0.1,0.022,1300000.0,51000000.0,0.0,0.0,107351755153.0,2501404303334.0,1073741824.0,622770257.0,89.0,19.0,110.0,0.0,23834624.0,347590656.0,448634880.0
0.0,299081.0,0.0,0.1,0.022,1300000.0,51000000.0,0.0,0.0,107351755153.0,2501404303334.0,1073741824.0,622770257.0,89.0,19.0,110.0,0.0,23834624.0,347590656.0,448634880.0
0.0,299081.0,0.0,0.1,0.022,1300000.0,51000000.0,0.0,0.0,107351755153.0,2501404303334.0,1073741824.0,622770257.0,89.0,19.0,110.0,0.0,23834624.0,347590656.0,448634880.0
0.0,299081.0,0.0,0.1,0.022,1300000.0,51000000.0,0.0,0.0,107351755153.0,2501404303334.0,1073741824.0,622770257.0,89.0,19.0,110.0,0.0,23834624.0,347590656.0,448634880.0
0.0,299081.0,0.0,0.1,0.022,2500000.0,58000000.0,0.0,0.0,107381489919.0,2502281294018.0,1073741824.0,622770257.0,89.0,19.0,110.0,0.0,23834624.0,347590656.0,448634880.0
0.0,1261021.0,0.0,0.72,0.12,2500000.0,58000000.0,0.0,0.0,107381489919.0,2502281294018.0,1073741824.0,622770257.0,89.0,19.0,110.0,0.0,23834624.0,347590656.0,448634880.0
0.0,1261021.0,0.0,0.72,0.12,2500000.0,58000000.0,0.0,0.0,107381489919.0,2502281294018.0,1073741824.0,622770257.0,83.0,27.0,110.0,0.0,23863296.0,358834176.0,448765952.0
0.0,1261021.0,0.0,0.72,0.12,2500000.0,58000000.0,0.0,0.0,107381489919.0,2502281294018.0,1073741824.0,622770257.0,83.0,27.0,110.0,0.0,23863296.0,358834176.0,448765952.0
0.0,1261021.0,0.0,0.72,0.12,2500000.0,58000000.0,0.0,0.0,107381489919.0,2502281294018.0,1073741824.0,622770257.0,83.0,27.0,110.0,0.0,23863296.0,358834176.0,448765952.0
0.0,1261021.0,0.0,0.72,0.12,2500000.0,58000000.0,0.0,0.0,107381489919.0,2502281294018.0,1073741824.0,622770257.0,83.0,27.0,110.0,0.0,23863296.0,358834176.0,448765952.0
0.0,1261021.0,0.0,0.72,0.12,1300000.0,51000000.0,0.0,0.0,107409680113.0,2503112042114.0,1073741824.0,622770257.0,83.0,27.0,110.0,0.0,23863296.0,358834176.0,448765952.0
0.0,1261021.0,0.0,0.72,0.12,1300000.0,51000000.0,0.0,0.0,107409680113.0,2503112042114.0,1073741824.0,622770257.0,83.0,27.0,110.0,0.0,23863296.0,358834176.0,448765952.0
0.0,2449.0,0.0,0.00018,0.013,1300000.0,51000000.0,0.0,0.0,107409680113.0,2503112042114.0,1073741824.0,622770257.0,83.0,27.0,110.0,0.0,23863296.0,358834176.0,448765952.0
0.0,2449.0,0.0,0.00018,0.013,1300000.0,51000000.0,0.0,0.0,107409680113.0,2503112042114.0,1073741824.0,622770257.0,83.0,27.0,110.0,0.0,23904256.0,344084480.0,450408448.0
0.0,2449.0,0.0,0.00018,0.013,1300000.0,51000000.0,0.0,0.0,107409680113.0,2503112042114.0,1073741824.0,622770257.0,93.0,15.0,110.0,0.0,23904256.0,344084480.0,450408448.0
0.0,2449.0,0.0,0.00018,0.013,1300000.0,51000000.0,0.0,0.0,107409680113.0,2503112042114.0,1073741824.0,622770257.0,93.0,15.0,110.0,0.0,23904256.0,344084480.0,450408448.0
0.0,2449.0,0.0,0.00018,0.013,1300000.0,51000000.0,0.0,0.0,107409680113.0,2503112042114.0,1073741824.0,622770257.0,93.0,15.0,110.0,0.0,23904256.0,344084480.0,450408448.0
0.0,2449.0,0.0,0.00018,0.013,1300000.0,51000000.0,0.0,0.0,107409680113.0,2503112042114.0,1073741824.0,622770257.0,93.0,15.0,110.0,0.0,23904256.0,344084480.0,450408448.0
0.0,2449.0,0.0,0.00018,0.013,2500000.0,55000000.0,0.0,0.0,107438550763.0,2503963551041.0,1073741824.0,622770257.0,93.0,15.0,110.0,0.0,23904256.0,344084480.0,450408448.0
3561.0,1577028.0,0.027,0.26,0.17,2500000.0,55000000.0,0.0,0.0,107438550763.0,2503963551041.0,1073741824.0,622770257.0,93.0,15.0,110.0,0.0,23904256.0,344084480.0,450408448.0
3561.0,1577028.0,0.027,0.26,0.17,2500000.0,55000000.0,0.0,0.0,107438550763.0,2503963551041.0,1073741824.0,622770257.0,93.0,15.0,110.0,0.0,23904256.0,344084480.0,450408448.0
3561.0,1577028.0,0.027,0.26,0.17,2500000.0,55000000.0,0.0,0.0,107438550763.0,2503963551041.0,1073741824.0,622770257.0,96.0,15.0,110.0,0.0,23937024.0,359002112.0,448626688.0
3561.0,1577028.0,0.027,0.26,0.17,2500000.0,55000000.0,0.0,0.0,107438550763.0,2503963551041.0,1073741824.0,622770257.0,96.0,15.0,110.0,0.0,23937024.0,359002112.0,448626688.0
3561.0,1577028.0,0.027,0.26,0.17,2500000.0,55000000.0,0.0,0.0,107438550763.0,2503963551041.0,1073741824.0,622770257.0,96.0,15.0,110.0,0.0,23937024.0,359002112.0,448626688.0
3561.0,1577028.0,0.027,0.26,0.17,2500000.0,55000000.0,0.0,0.0,107438550763.0,2503963551041.0,1073741824.0,622770257.0,96.0,15.0,110.0,0.0,23937024.0,359002112.0,448626688.0
3561.0,1577028.0,0.027,0.26,0.17,1300000.0,51000000.0,0.0,0.0,107467823375.0,2504825215290.0,1073741824.0,622770257.0,96.0,15.0,110.0,0.0,23937024.0,359002112.0,448626688.0
1092.0,2459.0,0.036,0.0023,0.077,1300000.0,51000000.0,0.0,0.0,107467823375.0,2504825215290.0,1073741824.0,622770257.0,96.0,15.0,110.0,0.0,23937024.0,359002112.0,448626688.0
1092.0,2459.0,0.036,0.0023,0.077,1300000.0,51000000.0,0.0,0.0,107467823375.0,2504825215290.0,1073741824.0,622770257.0,84.0,22.0,110.0,0.0,23961600.0,357072896.0,449142784.0
1092.0,2459.0,0.036,0.0023,0.077,1300000.0,51000000.0,0.0,0.0,107467823375.0,2504825215290.0,1073741824.0,622770257.0,84.0,22.0,110.0,0.0,23961600.0,357072896.0,449142784.0
1092.0,2459.0,0.036,0.0023,0.077,1300000.0,51000000.0,0.0,0.0,107467823375.0,2504825215290.0,1073741824.0,622770257.0,84.0,22.0,110.0,0.0,23961600.0,357072896.0,449142784.0
1092.0,2459.0,0.036,0.0023,0.077,1300000.0,51000000.0,0.0,0.0,107467823375.0,2504825215290.0,1073741824.0,622770257.0,84.0,22.0,110.0,0.0,23961600.0,357072896.0,449142784.0
1092.0,2459.0,0.036,0.0023,0.077,1300000.0,53000000.0,0.0,0.0,107496262527.0,2505664071817.0,1073741824.0,622770257.0,84.0,22.0,110.0,0.0,23961600.0,357072896.0,449142784.0
3003.0,1669802.0,0.025,0.27,0.084,1300000.0,53000000.0,0.0,0.0,107496262527.0,2505664071817.0,1073741824.0,622770257.0,84.0,22.0,110.0,0.0,23961600.0,357072896.0,449142784.0
3003.0,1669802.0,0.025,0.27,0.084,1300000.0,53000000.0,0.0,0.0,107496262527.0,2505664071817.0,1073741824.0,622770257.0,84.0,22.0,110.0,0.0,23961600.0,357072896.0,449142784.0
3003.0,1669802.0,0.025,0.27,0.084,1300000.0,53000000.0,0.0,0.0,107496262527.0,2505664071817.0,1073741824.0,622770257.0,91.0,19.0,110.0,0.0,23986176.0,353734656.0,450269184.0
3003.0,1669802.0,0.025,0.27,0.084,1300000.0,53000000.0,0.0,0.0,107496262527.0,2505664071817.0,1073741824.0,622770257.0,91.0,19.0,110.0,0.0,23986176.0,353734656.0,450269184.0
3003.0,1669802.0,0.025,0.27,0.084,1300000.0,53000000.0,0.0,0.0,107496262527.0,2505664071817.0,1073741824.0,622770257.0,91.0,19.0,110.0,0.0,23986176.0,353734656.0,450269184.0
3003.0,1669802.0,0.025,0.27,0.084,1300000.0,53000000.0,0.0,0.0,107496262527.0,2505664071817.0,1073741824.0,622770257.0,91.0,19.0,110.0,0.0,23986176.0,353734656.0,450269184.0
3003.0,1669802.0,0.025,0.27,0.084,1300000.0,53000000.0,0.0,0.0,107496262527.0,2505664071817.0,1073741824.0,622770257.0,91.0,19.0,110.0,0.0,23986176.0,353734656.0,450269184.0
0.0,2457.0,0.0,0.00022,0.14,2500000.0,56000000.0,0.0,0.0,107525200189.0,2506517034512.0,1073741824.0,622770257.0,91.0,19.0,110.0,0.0,23986176.0,353734656.0,450269184.0
0.0,2457.0,0.0,0.00022,0.14,2500000.0,56000000.0,0.0,0.0,107525200189.0,2506517034512.0,1073741824.0,622770257.0,91.0,19.0,110.0,0.0,23986176.0,353734656.0,450269184.0
0.0,2457.0,0.0,0.00022,0.14,2500000.0,56000000.0,0.0,0.0,107525200189.0,2506517034512.0,1073741824.0,622770257.0,86.0,21.0,110.0,0.0,24010752.0,350961664.0,450265088.0
0.0,2457.0,0.0,0.00022,0.14,2500000.0,56000000.0,0.0,0.0,107525200189.0,2506517034512.0,1073741824.0,622770257.0,86.0,21.0,110.0,0.0,24010752.0,350961664.0,450265088.0
0.0,2457.0,0.0,0.00022,0.14,2500000.0,56000000.0,0.0,0.0,107525200189.0,2506517034512.0,1073741824.0,622770257.0,86.0,21.0,110.0,0.0,24010752.0,350961664.0,450265088.0
0.0,2457.0,0.0,0.00022,0.14,2500000.0,56000000.0,0.0,0.0,107525200189.0,2506517034512.0,1073741824.0,622770257.0,86.0,21.0,110.0,0.0,24010752.0,350961664.0,450265088.0
0.0,2457.0,0.0,0.00022,0.14,2500000.0,56000000.0,0.0,0.0,107525200189.0,2506517034512.0,1073741824.0,622770257.0,86.0,21.0,110.0,0.0,24010752.0,350961664.0,450265088.0
1911.0,1539549.0,0.14,0.48,0.015,1300000.0,50000000.0,0.0,0.0,107552431799.0,2507317939378.0,1073741824.0,622770257.0,86.0,21.0,110.0,0.0,24010752.0,350961664.0,450265088.0
1911.0,1539549.0,0.14,0.48,0.015,1300000.0,50000000.0,0.0,0.0,107552431799.0,2507317939378.0,1073741824.0,622770257.0,86.0,23.0,110.0,0.0,24035328.0,362110976.0,449785856.0
1911.0,1539549.0,0.14,0.48,0.015,1300000.0,50000000.0,0.0,0.0,107552431799.0,2507317939378.0,1073741824.0,622770257.0,86.0,23.0,110.0,0.0,24035328.0,362110976.0,449785856.0
1911.0,1539549.0,0.14,0.48,0.015,1300000.0,50000000.0,0.0,0.0,107552431799.0,2507317939378.0,1073741824.0,622770257.0,86.0,23.0,110.0,0.0,24035328.0,362110976.0,449785856.0
1911.0,1539549.0,0.14,0.48,0.015,1300000.0,50000000.0,0.0,0.0,107552431799.0,2507317939378.0,1073741824.0,622770257.0,86.0,23.0,110.0,0.0,24035328.0,362110976.0,449785856.0
1911.0,1539549.0,0.14,0.48,0.015,1300000.0,50000000.0,0.0,0.0,107552431799.0,2507317939378.0,1073741824.0,622770257.0,86.0,23.0,110.0,0.0,24035328.0,362110976.0,449785856.0
0.0,1596347.0,0.0,0.34,0.083,3800000.0,100000000.0,0.0,0.0,107609352753.0,2508994924446.0,1073741824.0,622770257.0,86.0,23.0,110.0,0.0,24035328.0,362110976.0,449785856.0
0.0,1596347.0,0.0,0.34,0.083,3800000.0,100000000.0,0.0,0.0,107609352753.0,2508994924446.0,1073741824.0,622770257.0,86.0,23.0,110.0,0.0,24035328.0,362110976.0,449785856.0
0.0,1596347.0,0.0,0.34,0.083,3800000.0,100000000.0,0.0,0.0,107609352753.0,2508994924446.0,1073741824.0,622770257.0,91.0,20.0,110.0,0.0,24059904.0,359583744.0,449826816.0
0.0,1596347.0,0.0,0.34,0.083,3800000.0,100000000.0,0.0,0.0,107609352753.0,2508994924446.0,1073741824.0,622770257.0,91.0,20.0,110.0,0.0,24059904.0,359583744.0,449826816.0
0.0,1596347.0,0.0,0.34,0.083,3800000.0,100000000.0,0.0,0.0,107609352753.0,2508994924446.0,1073741824.0,622770257.0,91.0,20.0,110.0,0.0,24059904.0,359583744.0,449826816.0
0.0,1596347.0,0.0,0.34,0.083,3800000.0,100000000.0,0.0,0.0,107609352753.0,2508994924446.0,1073741824.0,622770257.0,91.0,20.0,110.0,0.0,24059904.0,359583744.0,449826816.0
0.0,2455.0,0.0,0.00022,0.16,2500000.0,58000000.0,0.0,0.0,107639195053.0,2509873711745.0,1073741824.0,622770257.0,91.0,20.0,110.0,0.0,24059904.0,359583744.0,449826816.0
0.0,2455.0,0.0,0.00022,0.16,2500000.0,58000000.0,0.0,0.0,107639195053.0,2509873711745.0,1073741824.0,622770257.0,91.0,20.0,110.0,0.0,24059904.0,359583744.0,449826816.0
0.0,2455.0,0.0,0.00022,0.16,2500000.0,58000000.0,0.0,0.0,107639195053.0,2509873711745.0,1073741824.0,622770257.0,87.0,22.0,110.0,0.0,24092672.0,360398848.0,449073152.0
0.0,2455.0,0.0,0.00022,0.16,2500000.0,58000000.0,0.0,0.0,107639195053.0,2509873711745.0,1073741824.0,622770257.0,87.0,22.0,110.0,0.0,24092672.0,360398848.0,449073152.0
0.0,2455.0,0.0,0.00022,0.16,2500000.0,58000000.0,0.0,0.0,107639195053.0,2509873711745.0,1073741824.0,622770257.0,87.0,22.0,110.0,0.0,24092672.0,360398848.0,449073152.0
0.0,2455.0,0.0,0.00022,0.16,2500000.0,58000000.0,0.0,0.0,107639195053.0,2509873711745.0,1073741824.0,622770257.0,87.0,22.0,110.0,0.0,24092672.0,360398848.0,449073152.0
0.0,2455.0,0.0,0.00022,0.16,1300000.0,51000000.0,0.0,0.0,107666762067.0,2510685546860.0,1073741824.0,622770257.0,87.0,22.0,110.0,0.0,24092672.0,360398848.0,449073152.0
0.0,1558884.0,0.0,0.67,0.028,1300000.0,51000000.0,0.0,0.0,107666762067.0,2510685546860.0,1073741824.0,622770257.0,87.0,22.0,110.0,0.0,24092672.0,360398848.0,449073152.0
0.0,1558884.0,0.0,0.67,0.028,1300000.0,51000000.0,0.0,0.0,107666762067.0,2510685546860.0,1073741824.0,622770257.0,90.0,19.0,110.0,0.0,24117248.0,358432768.0,449380352.0
0.0,1558884.0,0.0,0.67,0.028,1300000.0,51000000.0,0.0,0.0,107666762067.0,2510685546860.0,1073741824.0,622770257.0,90.0,19.0,110.0,0.0,24117248.0,358432768.0,449380352.0
0.0,1558884.0,0.0,0.67,0.028,1300000.0,51000000.0,0.0,0.0,107666762067.0,2510685546860.0,1073741824.0,622770257.0,90.0,19.0,110.0,0.0,24117248.0,358432768.0,449380352.0
0.0,1558884.0,0.0,0.67,0.028,1300000.0,51000000.0,0.0,0.0,107666762067.0,2510685546860.0,1073741824.0,622770257.0,90.0,19.0,110.0,0.0,24117248.0,358432768.0,449380352.0
0.0,1558884.0,0.0,0.67,0.028,2500000.0,59000000.0,0.0,0.0,107696787701.0,2511571108976.0,1073741824.0,622770257.0,90.0,19.0,110.0,0.0,24117248.0,358432768.0,449380352.0
0.0,2457.0,0.0,0.00026,0.12,2500000.0,59000000.0,0.0,0.0,107696787701.0,2511571108976.0,1073741824.0,622770257.0,90.0,19.0,110.0,0.0,24117248.0,358432768.0,449380352.0
0.0,2457.0,0.0,0.00026,0.12,2500000.0,59000000.0,0.0,0.0,107696787701.0,2511571108976.0,1073741824.0,622770257.0,86.0,22.0,110.0,0.0,24145920.0,355225600.0,448913408.0
0.0,2457.0,0.0,0.00026,0.12,2500000.0,59000000.0,0.0,0.0,107696787701.0,2511571108976.0,1073741824.0,622770257.0,86.0,22.0,110.0,0.0,24145920.0,355225600.0,448913408.0
0.0,2457.0,0.0,0.00026,0.12,2500000.0,59000000.0,0.0,0.0,107696787701.0,2511571108976.0,1073741824.0,622770257.0,86.0,22.0,110.0,0.0,24145920.0,355225600.0,448913408.0
0.0,2457.0,0.0,0.00026,0.12,2500000.0,59000000.0,0.0,0.0,107696787701.0,2511571108976.0,1073741824.0,622770257.0,86.0,22.0,110.0,0.0,24145920.0,355225600.0,448913408.0
0.0,2457.0,0.0,0.00026,0.12,2500000.0,59000000.0,0.0,0.0,107696787701.0,2511571108976.0,1073741824.0,622770257.0,86.0,22.0,110.0,0.0,24145920.0,355225600.0,448913408.0
0.0,2457.0,0.0,0.00026,0.12,1300000.0,53000000.0,0.0,0.0,107724158467.0,2512377726853.0,1073741824.0,622770257.0,86.0,22.0,110.0,0.0,24145920.0,355225600.0,448913408.0
269.0,1568159.0,0.061,0.52,0.034,1300000.0,53000000.0,0.0,0.0,107724158467.0,2512377726853.0,1073741824.0,622770257.0,86.0,22.0,110.0,0.0,24145920.0,355225600.0,448913408.0
269.0,1568159.0,0.061,0.52,0.034,1300000.0,53000000.0,0.0,0.0,107724158467.0,2512377726853.0,1073741824.0,622770257.0,90.0,21.0,110.0,0.0,24170496.0,352612352.0,449355776.0
269.0,1568159.0,0.061,0.52,0.034,1300000.0,53000000.0,0.0,0.0,107724158467.0,2512377726853.0,1073741824.0,622770257.0,90.0,21.0,110.0,0.0,24170496.0,352612352.0,449355776.0
269.0,1568159.0,0.061,0.52,0.034,1300000.0,53000000.0,0.0,0.0,107724158467.0,2512377726853.0,1073741824.0,622770257.0,90.0,21.0,110.0,0.0,24170496.0,352612352.0,449355776.0
269.0,1568159.0,0.061,0.52,0.034,1300000.0,53000000.0,0.0,0.0,107724158467.0,2512377726853.0,1073741824.0,622770257.0,90.0,21.0,110.0,0.0,24170496.0,352612352.0,449355776.0
269.0,1568159.0,0.061,0.52,0.034,1300000.0,54000000.0,0.0,0.0,107752476681.0,2513211413050.0,1073741824.0,622770257.0,90.0,21.0,110.0,0.0,24170496.0,352612352.0,449355776.0
0.0,2494.0,0.0,0.00025,0.042,1300000.0,54000000.0,0.0,0.0,107752476681.0,2513211413050.0,1073741824.0,622770257.0,90.0,21.0,110.0,0.0,24170496.0,352612352.0,449355776.0
0.0,2494.0,0.0,0.00025,0.042,1300000.0,54000000.0,0.0,0.0,107752476681.0,2513211413050.0,1073741824.0,622770257.0,90.0,19.0,110.0,0.0,24195072.0,350162944.0,450727936.0
0.0,2494.0,0.0,0.00025,0.042,1300000.0,54000000.0,0.0,0.0,107752476681.0,2513211413050.0,1073741824.0,622770257.0,90.0,19.0,110.0,0.0,24195072.0,350162944.0,450727936.0
0.0,2494.0,0.0,0.00025,0.042,1300000.0,54000000.0,0.0,0.0,107752476681.0,2513211413050.0,1073741824.0,622770257.0,90.0,19.0,110.0,0.0,24195072.0,350162944.0,450727936.0
0.0,2494.0,0.0,0.00025,0.042,1300000.0,54000000.0,0.0,0.0,107752476681.0,2513211413050.0,1073741824.0,622770257.0,90.0,19.0,110.0,0.0,24195072.0,350162944.0,450727936.0
0.0,2494.0,0.0,0.00025,0.042,1300000.0,54000000.0,0.0,0.0,107752476681.0,2513211413050.0,1073741824.0,622770257.0,90.0,19.0,110.0,0.0,24195072.0,350162944.0,450727936.0
2987.0,1551482.0,0.013,0.63,0.049,2500000.0,58000000.0,0.0,0.0,107781849041.0,2514076818481.0,1073741824.0,622770257.0,90.0,19.0,110.0,0.0,24195072.0,350162944.0,450727936.0
2987.0,1551482.0,0.013,0.63,0.049,2500000.0,58000000.0,0.0,0.0,107781849041.0,2514076818481.0,1073741824.0,622770257.0,90.0,19.0,110.0,0.0,24195072.0,350162944.0,450727936.0
2987.0,1551482.0,0.013,0.63,0.049,2500000.0,58000000.0,0.0,0.0,107781849041.0,2514076818481.0,1073741824.0,622770257.0,83.0,26.0,110.0,0.0,24219648.0,360583168.0,450433024.0
2987.0,1551482.0,0.013,0.63,0.049,2500000.0,58000000.0,0.0,0.0,107781849041.0,2514076818481.0,1073741824.0,622770257.0,83.0,26.0,110.0,0.0,24219648.0,360583168.0,450433024.0
2987.0,1551482.0,0.013,0.63,0.049,2500000.0,58000000.0,0.0,0.0,107781849041.0,2514076818481.0,1073741824.0,622770257.0,83.0,26.0,110.0,0.0,24219648.0,360583168.0,450433024.0
2987.0,1551482.0,0.013,0.63,0.049,2500000.0,58000000.0,0.0,0.0,107781849041.0,2514076818481.0,1073741824.0,622770257.0,83.0,26.0,110.0,0.0,24219648.0,360583168.0,450433024.0
2987.0,1551482.0,0.013,0.63,0.049,2500000.0,58000000.0,0.0,0.0,107781849041.0,2514076818481.0,1073741824.0,622770257.0,83.0,26.0,110.0,0.0,24219648.0,360583168.0,450433024.0
2987.0,1551482.0,0.013,0.63,0.049,1300000.0,49000000.0,0.0,0.0,107807163563.0,2514822129330.0,1073741824.0,622770257.0,83.0,26.0,110.0,0.0,24219648.0,360583168.0,450433024.0
0.0,2467.0,0.0,0.0002,0.05,1300000.0,49000000.0,0.0,0.0,107807163563.0,2514822129330.0,1073741824.0,622770257.0,83.0,26.0,110.0,0.0,24219648.0,360583168.0,450433024.0
0.0,2467.0,0.0,0.0002,0.05,1300000.0,49000000.0,0.0,0.0,107807163563.0,2514822129330.0,1073741824.0,622770257.0,91.0,19.0,110.0,0.0,24244224.0,358346752.0,451686400.0
0.0,2467.0,0.0,0.0002,0.05,1300000.0,49000000.0,0.0,0.0,107807163563.0,2514822129330.0,1073741824.0,622770257.0,91.0,19.0,110.0,0.0,24244224.0,358346752.0,451686400.0
0.0,2467.0,0.0,0.0002,0.05,1300000.0,49000000.0,0.0,0.0,107807163563.0,2514822129330.0,1073741824.0,622770257.0,91.0,19.0,110.0,0.0,24244224.0,358346752.0,451686400.0
0.0,2467.0,0.0,0.0002,0.05,1300000.0,49000000.0,0.0,0.0,107807163563.0,2514822129330.0,1073741824.0,622770257.0,91.0,19.0,110.0,0.0,24244224.0,358346752.0,451686400.0
0.0,2467.0,0.0,0.0002,0.05,1300000.0,49000000.0,0.0,0.0,107807163563.0,2514822129330.0,1073741824.0,622770257.0,91.0,19.0,110.0,0.0,24244224.0,358346752.0,451686400.0
0.0,2467.0,0.0,0.0002,0.05,1300000.0,54000000.0,0.0,0.0,107836950213.0,2515700457317.0,1073741824.0,622770257.0,91.0,19.0,110.0,0.0,24244224.0,358346752.0,451686400.0
0.0,1535111.0,0.0,0.5,0.13,1300000.0,54000000.0,0.0,0.0,107836950213.0,2515700457317.0,1073741824.0,622770257.0,89.0,22.0,110.0,0.0,24268800.0,355512320.0,450506752.0
0.0,1535111.0,0.0,0.5,0.13,1300000.0,54000000.0,0.0,0.0,107836950213.0,2515700457317.0,1073741824.0,622770257.0,89.0,22.0,110.0,0.0,24268800.0,355512320.0,450506752.0
0.0,1535111.0,0.0,0.5,0.13,1300000.0,54000000.0,0.0,0.0,107836950213.0,2515700457317.0,1073741824.0,622770257.0,89.0,22.0,110.0,0.0,24268800.0,355512320.0,450506752.0
0.0,1535111.0,0.0,0.5,0.13,1300000.0,54000000.0,0.0,0.0,107836950213.0,2515700457317.0,1073741824.0,622770257.0,89.0,22.0,110.0,0.0,24268800.0,355512320.0,450506752.0
0.0,1535111.0,0.0,0.5,0.13,1300000.0,54000000.0,0.0,0.0,107836950213.0,2515700457317.0,1073741824.0,622770257.0,89.0,22.0,110.0,0.0,24268800.0,355512320.0,450506752.0
0.0,1535111.0,0.0,0.5,0.13,1300000.0,50000000.0,0.0,0.0,107864452215.0,2516510280883.0,1073741824.0,622770257.0,89.0,22.0,110.0,0.0,24268800.0,355512320.0,450506752.0
0.0,2457.0,0.0,0.00043,0.083,1300000.0,50000000.0,0.0,0.0,107864452215.0,2516510280883.0,1073741824.0,622770257.0,89.0,22.0,110.0,0.0,24268800.0,355512320.0,450506752.0
0.0,2457.0,0.0,0.00043,0.083,1300000.0,50000000.0,0.0,0.0,107864452215.0,2516510280883.0,1073741824.0,622770257.0,89.0,19.0,110.0,0.0,24293376.0,352964608.0,449310720.0
0.0,2457.0,0.0,0.00043,0.083,1300000.0,50000000.0,0.0,0.0,107864452215.0,2516510280883.0,1073741824.0,622770257.0,89.0,19.0,110.0,0.0,24293376.0,352964608.0,449310720.0
0.0,2457.0,0.0,0.00043,0.083,1300000.0,50000000.0,0.0,0.0,107864452215.0,2516510280883.0,1073741824.0,622770257.0,89.0,19.0,110.0,0.0,24293376.0,352964608.0,449310720.0
0.0,2457.0,0.0,0.00043,0.083,1300000.0,50000000.0,0.0,0.0,107864452215.0,2516510280883.0,1073741824.0,622770257.0,89.0,19.0,110.0,0.0,24293376.0,352964608.0,449310720.0
0.0,2457.0,0.0,0.00043,0.083,1300000.0,50000000.0,0.0,0.0,107864452215.0,2516510280883.0,1073741824.0,622770257.0,89.0,19.0,110.0,0.0,24293376.0,352964608.0,449310720.0
0.0,2457.0,0.0,0.00043,0.083,2500000.0,59000000.0,0.0,0.0,107894257531.0,2517389277305.0,1073741824.0,622770257.0,89.0,19.0,110.0,0.0,24293376.0,352964608.0,449310720.0
0.0,1636216.0,0.0,0.58,0.065,2500000.0,59000000.0,0.0,0.0,107894257531.0,2517389277305.0,1073741824.0,622770257.0,89.0,19.0,110.0,0.0,24293376.0,352964608.0,449310720.0
0.0,1636216.0,0.0,0.58,0.065,2500000.0,59000000.0,0.0,0.0,107894257531.0,2517389277305.0,1073741824.0,622770257.0,89.0,20.0,110.0,0.0,24317952.0,350453760.0,449175552.0
0.0,1636216.0,0.0,0.58,0.065,2500000.0,59000000.0,0.0,0.0,107894257531.0,2517389277305.0,1073741824.0,622770257.0,89.0,20.0,110.0,0.0,24317952.0,350453760.0,449175552.0
0.0,1636216.0,0.0,0.58,0.065,2500000.0,59000000.0,0.0,0.0,107894257531.0,2517389277305.0,1073741824.0,622770257.0,89.0,20.0,110.0,0.0,24317952.0,350453760.0,449175552.0
0.0,1636216.0,0.0,0.58,0.065,2500000.0,59000000.0,0.0,0.0,107894257531.0,2517389277305.0,1073741824.0,622770257.0,89.0,20.0,110.0,0.0,24317952.0,350453760.0,449175552.0
0.0,1636216.0,0.0,0.58,0.065,2500000.0,59000000.0,0.0,0.0,107894257531.0,2517389277305.0,1073741824.0,622770257.0,89.0,20.0,110.0,0.0,24317952.0,350453760.0,449175552.0
0.0,2454.0,0.0,0.0002,0.017,2500000.0,56000000.0,0.0,0.0,107923139273.0,2518240025438.0,1073741824.0,622770257.0,89.0,20.0,110.0,0.0,24317952.0,350453760.0,449175552.0
0.0,2454.0,0.0,0.0002,0.017,2500000.0,56000000.0,0.0,0.0,107923139273.0,2518240025438.0,1073741824.0,622770257.0,89.0,20.0,110.0,0.0,24317952.0,350453760.0,449175552.0
0.0,2454.0,0.0,0.0002,0.017,2500000.0,56000000.0,0.0,0.0,107923139273.0,2518240025438.0,1073741824.0,622770257.0,85.0,19.0,100.0,0.0,24342528.0,347934720.0,448995328.0
0.0,2454.0,0.0,0.0002,0.017,2500000.0,56000000.0,0.0,0.0,107923139273.0,2518240025438.0,1073741824.0,622770257.0,85.0,19.0,100.0,0.0,24342528.0,347934720.0,448995328.0
0.0,2454.0,0.0,0.0002,0.017,2500000.0,56000000.0,0.0,0.0,107923139273.0,2518240025438.0,1073741824.0,622770257.0,85.0,19.0,100.0,0.0,24342528.0,347934720.0,448995328.0
0.0,2454.0,0.0,0.0002,0.017,2500000.0,56000000.0,0.0,0.0,107923139273.0,2518240025438.0,1073741824.0,622770257.0,85.0,19.0,100.0,0.0,24342528.0,347934720.0,448995328.0
0.0,2454.0,0.0,0.0002,0.017,1300000.0,54000000.0,0.0,0.0,107950994973.0,2519060839669.0,1073741824.0,622770257.0,85.0,19.0,100.0,0.0,24342528.0,347934720.0,448995328.0
0.0,1582694.0,0.0,0.35,0.1,1300000.0,54000000.0,0.0,0.0,107950994973.0,2519060839669.0,1073741824.0,622770257.0,85.0,19.0,100.0,0.0,24342528.0,347934720.0,448995328.0
0.0,1582694.0,0.0,0.35,0.1,1300000.0,54000000.0,0.0,0.0,107950994973.0,2519060839669.0,1073741824.0,622770257.0,91.0,18.0,110.0,0.0,24367104.0,359981056.0,449339392.0
0.0,1582694.0,0.0,0.35,0.1,1300000.0,54000000.0,0.0,0.0,107950994973.0,2519060839669.0,1073741824.0,622770257.0,91.0,18.0,110.0,0.0,24367104.0,359981056.0,449339392.0
0.0,1582694.0,0.0,0.35,0.1,1300000.0,54000000.0,0.0,0.0,107950994973.0,2519060839669.0,1073741824.0,622770257.0,91.0,18.0,110.0,0.0,24367104.0,359981056.0,449339392.0
0.0,1582694.0,0.0,0.35,0.1,1300000.0,54000000.0,0.0,0.0,107950994973.0,2519060839669.0,1073741824.0,622770257.0,91.0,18.0,110.0,0.0,24367104.0,359981056.0,449339392.0
0.0,1582694.0,0.0,0.35,0.1,1300000.0,54000000.0,0.0,0.0,107950994973.0,2519060839669.0,1073741824.0,622770257.0,91.0,18.0,110.0,0.0,24367104.0,359981056.0,449339392.0
0.0,2459.0,0.0,0.00023,0.0076,2500000.0,59000000.0,0.0,0.0,107981011473.0,2519946584947.0,1073741824.0,622770257.0,91.0,18.0,110.0,0.0,24367104.0,359981056.0,449339392.0
0.0,2459.0,0.0,0.00023,0.0076,2500000.0,59000000.0,0.0,0.0,107981011473.0,2519946584947.0,1073741824.0,622770257.0,91.0,18.0,110.0,0.0,24367104.0,359981056.0,449339392.0
0.0,2459.0,0.0,0.00023,0.0076,2500000.0,59000000.0,0.0,0.0,107981011473.0,2519946584947.0,1073741824.0,622770257.0,89.0,16.0,110.0,0.0,24391680.0,357007360.0,451084288.0
0.0,2459.0,0.0,0.00023,0.0076,2500000.0,59000000.0,0.0,0.0,107981011473.0,2519946584947.0,1073741824.0,622770257.0,89.0,16.0,110.0,0.0,24391680.0,357007360.0,451084288.0
0.0,2459.0,0.0,0.00023,0.0076,2500000.0,59000000.0,0.0,0.0,107981011473.0,2519946584947.0,1073741824.0,622770257.0,89.0,16.0,110.0,0.0,24391680.0,357007360.0,451084288.0
0.0,2459.0,0.0,0.00023,0.0076,2500000.0,59000000.0,0.0,0.0,107981011473.0,2519946584947.0,1073741824.0,622770257.0,89.0,16.0,110.0,0.0,24391680.0,357007360.0,451084288.0
0.0,2459.0,0.0,0.00023,0.0076,2500000.0,59000000.0,0.0,0.0,108011412753.0,2520842160510.0,1073741824.0,622770257.0,89.0,16.0,110.0,0.0,24391680.0,357007360.0,451084288.0
7656.0,1650157.0,0.011,0.45,0.053,2500000.0,59000000.0,0.0,0.0,108011412753.0,2520842160510.0,1073741824.0,622770257.0,89.0,16.0,110.0,0.0,24391680.0,357007360.0,451084288.0
7656.0,1650157.0,0.011,0.45,0.053,2500000.0,59000000.0,0.0,0.0,108011412753.0,2520842160510.0,1073741824.0,622770257.0,89.0,16.0,110.0,0.0,24391680.0,357007360.0,451084288.0
7656.0,1650157.0,0.011,0.45,0.053,2500000.0,59000000.0,0.0,0.0,108011412753.0,2520842160510.0,1073741824.0,622770257.0,89.0,16.0,110.0,0.0,24391680.0,357007360.0,451084288.0
7656.0,1650157.0,0.011,0.45,0.053,2500000.0,59000000.0,0.0,0.0,108011412753.0,2520842160510.0,1073741824.0,601295421.0,2.0,0.0,2.0,0.0,24416256.0,357011456.0,467111936.0
7656.0,1650157.0,0.011,0.45,0.053,2500000.0,59000000.0,0.0,0.0,108011412753.0,2520842160510.0,1073741824.0,601295421.0,2.0,0.0,2.0,0.0,24416256.0,357011456.0,467111936.0
7656.0,1650157.0,0.011,0.45,0.053,2500000.0,59000000.0,0.0,0.0,108011412753.0,2520842160510.0,1073741824.0,601295421.0,2.0,0.0,2.0,0.0,24416256.0,357011456.0,467111936.0
7656.0,1650157.0,0.011,0.45,0.053,2500000.0,59000000.0,0.0,0.0,108011412753.0,2520842160510.0,1073741824.0,601295421.0,2.0,0.0,2.0,0.0,24416256.0,357011456.0,467111936.0
